{
    "key": "group_59fbc9fa02cfe",
    "title": "Title",
    "fields": [
        {
            "key": "field_59fbca0f84eef",
            "label": "Title",
            "name": "title",
            "type": "text",
            "value": null,
            "instructions": "",
            "required": 0,
            "conditional_logic": 0,
            "wrapper": {
                "width": "66.6666",
                "class": "",
                "id": ""
            },
            "default_value": "",
            "placeholder": "",
            "prepend": "",
            "append": "",
            "maxlength": ""
        },
        {
            "key": "field_59fbca2284ef0",
            "label": "Alignment",
            "name": "title_alignment",
            "type": "button_group",
            "value": null,
            "instructions": "",
            "required": 0,
            "conditional_logic": 0,
            "wrapper": {
                "width": "33.3333",
                "class": "",
                "id": ""
            },
            "choices": {
                "text-inherit": "Inherit",
                "text-left": "Left",
                "text-center": "Center",
                "text-right": "Right"
            },
            "allow_null": 0,
            "default_value": "",
            "layout": "horizontal",
            "return_format": "value"
        }
    ],
    "location": [
        [
            {
                "param": "post_type",
                "operator": "==",
                "value": "post"
            }
        ]
    ],
    "menu_order": 0,
    "position": "normal",
    "style": "default",
    "label_placement": "top",
    "instruction_placement": "label",
    "hide_on_screen": "",
    "active": 0,
    "description": "",
    "modified": 1511715263
}