{
    "key": "group_59eeac13de792",
    "title": "(Block) Content Grid",
    "fields": [
        {
            "key": "field_57b4c921cff5b",
            "label": "Content",
            "name": "",
            "type": "tab",
            "instructions": "",
            "required": 0,
            "conditional_logic": 0,
            "wrapper": {
                "width": "",
                "class": "",
                "id": ""
            },
            "placement": "left",
            "endpoint": 0
        },
        {
            "key": "field_57b4c8f5cff58",
            "label": "Items",
            "name": "items",
            "type": "repeater",
            "value": null,
            "instructions": "",
            "required": 0,
            "conditional_logic": 0,
            "wrapper": {
                "width": "",
                "class": "",
                "id": ""
            },
            "min": 1,
            "max": 0,
            "layout": "block",
            "button_label": "Add Item",
            "collapsed": "",
            "sub_fields": [
                {
                    "key": "field_57b4c907cff59",
                    "label": "Image",
                    "name": "image",
                    "type": "image",
                    "value": null,
                    "instructions": "",
                    "required": 0,
                    "conditional_logic": 0,
                    "wrapper": {
                        "width": "",
                        "class": "",
                        "id": ""
                    },
                    "return_format": "id",
                    "preview_size": "thumbnail",
                    "library": "all",
                    "min_width": "",
                    "min_height": "",
                    "min_size": "",
                    "max_width": "",
                    "max_height": "",
                    "max_size": "",
                    "mime_types": ""
                },
                {
                    "key": "field_57b4c950cff5c",
                    "label": "Label",
                    "name": "label",
                    "type": "text",
                    "value": null,
                    "instructions": "",
                    "required": 0,
                    "conditional_logic": 0,
                    "wrapper": {
                        "width": "",
                        "class": "",
                        "id": ""
                    },
                    "default_value": "",
                    "placeholder": "",
                    "prepend": "",
                    "append": "",
                    "maxlength": ""
                },
                {
                    "key": "field_57b4c955cff5d",
                    "label": "Description",
                    "name": "description",
                    "type": "textarea",
                    "value": null,
                    "instructions": "",
                    "required": 0,
                    "conditional_logic": 0,
                    "wrapper": {
                        "width": "",
                        "class": "",
                        "id": ""
                    },
                    "default_value": "",
                    "placeholder": "",
                    "maxlength": "",
                    "rows": 4,
                    "new_lines": "wpautop"
                },
                {
                    "key": "field_588264ad6e200",
                    "label": "Button",
                    "name": "button",
                    "type": "clone",
                    "value": null,
                    "instructions": "",
                    "required": 0,
                    "conditional_logic": 0,
                    "wrapper": {
                        "width": "",
                        "class": "",
                        "id": ""
                    },
                    "clone": [
                        "group_58822f9c56d26"
                    ],
                    "prefix_label": 0,
                    "prefix_name": 0,
                    "display": "seamless",
                    "layout": "block"
                }
            ]
        },
        {
            "key": "field_583b8074cde75",
            "label": "Options",
            "name": "options",
            "type": "clone",
            "value": null,
            "instructions": "",
            "required": 0,
            "conditional_logic": 0,
            "wrapper": {
                "width": "",
                "class": "",
                "id": ""
            },
            "clone": [
                "group_58a7c38da05f6"
            ],
            "display": "seamless",
            "layout": "block",
            "prefix_label": 0,
            "prefix_name": 0
        },
        {
            "key": "field_583b8091cde76",
            "label": "Items per row",
            "name": "items_per_row",
            "type": "number",
            "value": null,
            "instructions": "",
            "required": 0,
            "conditional_logic": 0,
            "wrapper": {
                "width": "",
                "class": "",
                "id": ""
            },
            "default_value": "",
            "placeholder": "",
            "prepend": "",
            "append": "",
            "min": 2,
            "max": 4,
            "step": ""
        },
        {
            "key": "field_57b4c910cff5a",
            "label": "Background",
            "name": "background",
            "type": "clone",
            "value": null,
            "instructions": "",
            "required": 0,
            "conditional_logic": 0,
            "wrapper": {
                "width": "",
                "class": "",
                "id": ""
            },
            "clone": [
                "group_57b4b470e9d29"
            ],
            "display": "seamless",
            "layout": "block",
            "prefix_label": 0,
            "prefix_name": 0
        }
    ],
    "location": [
        [
            {
                "param": "post_type",
                "operator": "==",
                "value": "post"
            }
        ]
    ],
    "menu_order": 0,
    "position": "normal",
    "style": "default",
    "label_placement": "top",
    "instruction_placement": "label",
    "hide_on_screen": "",
    "active": 0,
    "description": "",
    "modified": 1508813870
}
