{
    "key": "group_59eeada158b78",
    "title": "(Block) Content with Sidebar",
    "fields": [
        {
            "key": "field_57b5bc222cf58",
            "label": "Content",
            "name": "",
            "type": "tab",
            "instructions": "",
            "required": 0,
            "conditional_logic": 0,
            "wrapper": {
                "width": "",
                "class": "",
                "id": ""
            },
            "placement": "left",
            "endpoint": 0
        },
        {
            "key": "field_57b5bc302cf59",
            "label": "Rows",
            "name": "content_rows",
            "type": "flexible_content",
            "instructions": "",
            "required": 0,
            "conditional_logic": 0,
            "wrapper": {
                "width": "",
                "class": "",
                "id": ""
            },
            "layouts": {
                "layout_5ccb0592b7b82": {
                    "key": "layout_5ccb0592b7b82",
                    "name": "accordion",
                    "label": "Accordion",
                    "display": "block",
                    "sub_fields": [
                        {
                            "key": "field_5ccb059fb7b83",
                            "label": "Title Block",
                            "name": "title_block",
                            "type": "clone",
                            "instructions": "",
                            "required": 0,
                            "conditional_logic": 0,
                            "wrapper": {
                                "width": "",
                                "class": "",
                                "id": ""
                            },
                            "clone": [
                                "group_59fbc9fa02cfe"
                            ],
                            "display": "seamless",
                            "layout": "block",
                            "prefix_label": 0,
                            "prefix_name": 0
                        },
                        {
                            "key": "field_5ccb0612b7b84",
                            "label": "Items",
                            "name": "items",
                            "type": "repeater",
                            "instructions": "",
                            "required": 0,
                            "conditional_logic": 0,
                            "wrapper": {
                                "width": "",
                                "class": "",
                                "id": ""
                            },
                            "collapsed": "",
                            "min": 0,
                            "max": 0,
                            "layout": "block",
                            "button_label": "",
                            "sub_fields": [
                                {
                                    "key": "field_5ccb062db7b85",
                                    "label": "Tab Heading",
                                    "name": "tab_heading",
                                    "type": "text",
                                    "instructions": "",
                                    "required": 0,
                                    "conditional_logic": 0,
                                    "wrapper": {
                                        "width": "",
                                        "class": "",
                                        "id": ""
                                    },
                                    "default_value": "",
                                    "placeholder": "",
                                    "prepend": "",
                                    "append": "",
                                    "maxlength": ""
                                },
                                {
                                    "key": "field_5ccb0635b7b86",
                                    "label": "Tab Content",
                                    "name": "tab_content",
                                    "type": "wysiwyg",
                                    "instructions": "",
                                    "required": 0,
                                    "conditional_logic": 0,
                                    "wrapper": {
                                        "width": "",
                                        "class": "",
                                        "id": ""
                                    },
                                    "tabs": "all",
                                    "toolbar": "full",
                                    "media_upload": 1,
                                    "default_value": "",
                                    "delay": 0
                                }
                            ]
                        }
                    ],
                    "min": "",
                    "max": ""
                },
                "layout_5d448ce87ee36": {
                    "key": "layout_5d448ce87ee36",
                    "name": "all_staff",
                    "label": "All Staff",
                    "display": "block",
                    "sub_fields": [
                        {
                            "key": "field_5d8a5ba8f5ae4",
                            "label": "Groups",
                            "name": "groups",
                            "type": "repeater",
                            "instructions": "",
                            "required": 0,
                            "conditional_logic": 0,
                            "wrapper": {
                                "width": "",
                                "class": "",
                                "id": ""
                            },
                            "collapsed": "",
                            "min": 0,
                            "max": 0,
                            "layout": "block",
                            "button_label": "",
                            "sub_fields": [
                                {
                                    "key": "field_5d8a5bb4f5ae5",
                                    "label": "Title",
                                    "name": "title",
                                    "type": "text",
                                    "instructions": "",
                                    "required": 0,
                                    "conditional_logic": 0,
                                    "wrapper": {
                                        "width": "",
                                        "class": "",
                                        "id": ""
                                    },
                                    "default_value": "",
                                    "placeholder": "",
                                    "prepend": "",
                                    "append": "",
                                    "maxlength": ""
                                },
                                {
                                    "key": "field_5d8a5bbdf5ae6",
                                    "label": "Categories",
                                    "name": "categories",
                                    "type": "taxonomy",
                                    "instructions": "",
                                    "required": 0,
                                    "conditional_logic": 0,
                                    "wrapper": {
                                        "width": "",
                                        "class": "",
                                        "id": ""
                                    },
                                    "taxonomy": "groups",
                                    "field_type": "checkbox",
                                    "add_term": 0,
                                    "save_terms": 0,
                                    "load_terms": 0,
                                    "return_format": "id",
                                    "multiple": 0,
                                    "allow_null": 0
                                }
                            ]
                        }
                    ],
                    "min": "",
                    "max": ""
                },
                "57b5bd520dbde": {
                    "key": "57b5bd520dbde",
                    "name": "editor",
                    "label": "Editor",
                    "display": "block",
                    "sub_fields": [
                        {
                            "key": "field_57b5d25e90691",
                            "label": "Columns",
                            "name": "columns",
                            "type": "repeater",
                            "instructions": "",
                            "required": 0,
                            "conditional_logic": 0,
                            "wrapper": {
                                "width": "",
                                "class": "",
                                "id": ""
                            },
                            "collapsed": "",
                            "min": 1,
                            "max": 3,
                            "layout": "block",
                            "button_label": "Add Column",
                            "sub_fields": [
                                {
                                    "key": "field_57b5d26990692",
                                    "label": "Content",
                                    "name": "content",
                                    "type": "wysiwyg",
                                    "instructions": "",
                                    "required": 0,
                                    "conditional_logic": 0,
                                    "wrapper": {
                                        "width": "",
                                        "class": "",
                                        "id": ""
                                    },
                                    "default_value": "",
                                    "tabs": "all",
                                    "toolbar": "full",
                                    "media_upload": 1,
                                    "delay": 0
                                }
                            ]
                        }
                    ],
                    "min": "",
                    "max": ""
                },
                "layout_5bc5ebf70a20a": {
                    "key": "layout_5bc5ebf70a20a",
                    "name": "events",
                    "label": "Events",
                    "display": "block",
                    "sub_fields": [
                        {
                            "key": "field_5bc5f854c7e3d",
                            "label": "Title",
                            "name": "title",
                            "type": "clone",
                            "instructions": "",
                            "required": 0,
                            "conditional_logic": 0,
                            "wrapper": {
                                "width": "",
                                "class": "",
                                "id": ""
                            },
                            "clone": [
                                "group_59fbc9fa02cfe"
                            ],
                            "display": "seamless",
                            "layout": "block",
                            "prefix_label": 0,
                            "prefix_name": 0
                        },
                        {
                            "key": "field_5c2ced9b3471e",
                            "label": "Events Page",
                            "name": "events_page",
                            "type": "page_link",
                            "instructions": "",
                            "required": 0,
                            "conditional_logic": 0,
                            "wrapper": {
                                "width": "50",
                                "class": "",
                                "id": ""
                            },
                            "post_type": "",
                            "taxonomy": "",
                            "allow_null": 0,
                            "allow_archives": 1,
                            "multiple": 0
                        },
                        {
                            "key": "field_5c2d046ee5ab7",
                            "label": "Event Count",
                            "name": "event_count",
                            "type": "number",
                            "instructions": "",
                            "required": 0,
                            "conditional_logic": 0,
                            "wrapper": {
                                "width": "50",
                                "class": "",
                                "id": ""
                            },
                            "default_value": 3,
                            "placeholder": "",
                            "prepend": "",
                            "append": "",
                            "min": 1,
                            "max": "",
                            "step": 1
                        }
                    ],
                    "min": "",
                    "max": ""
                },
                "layout_5c094cce1d939": {
                    "key": "layout_5c094cce1d939",
                    "name": "files",
                    "label": "Files",
                    "display": "block",
                    "sub_fields": [
                        {
                            "key": "field_5c0a9c68b562f",
                            "label": "Heading",
                            "name": "heading",
                            "type": "text",
                            "instructions": "",
                            "required": 0,
                            "conditional_logic": 0,
                            "wrapper": {
                                "width": "",
                                "class": "",
                                "id": ""
                            },
                            "default_value": "",
                            "placeholder": "",
                            "prepend": "",
                            "append": "",
                            "maxlength": ""
                        },
                        {
                            "key": "field_5c094cd31d93a",
                            "label": "Files",
                            "name": "files",
                            "type": "repeater",
                            "instructions": "",
                            "required": 0,
                            "conditional_logic": 0,
                            "wrapper": {
                                "width": "",
                                "class": "",
                                "id": ""
                            },
                            "collapsed": "",
                            "min": 0,
                            "max": 0,
                            "layout": "block",
                            "button_label": "",
                            "sub_fields": [
                                {
                                    "key": "field_5c094df81d93b",
                                    "label": "File",
                                    "name": "file",
                                    "type": "file",
                                    "instructions": "",
                                    "required": 0,
                                    "conditional_logic": 0,
                                    "wrapper": {
                                        "width": "50",
                                        "class": "",
                                        "id": ""
                                    },
                                    "return_format": "array",
                                    "library": "all",
                                    "min_size": "",
                                    "max_size": "",
                                    "mime_types": ""
                                },
                                {
                                    "key": "field_5c0a9f479c9ee",
                                    "label": "Label",
                                    "name": "label",
                                    "type": "text",
                                    "instructions": "",
                                    "required": 0,
                                    "conditional_logic": 0,
                                    "wrapper": {
                                        "width": "50",
                                        "class": "",
                                        "id": ""
                                    },
                                    "default_value": "",
                                    "placeholder": "",
                                    "prepend": "",
                                    "append": "",
                                    "maxlength": ""
                                }
                            ]
                        }
                    ],
                    "min": "",
                    "max": ""
                },
                "layout_5c0fe1a131639": {
                    "key": "layout_5c0fe1a131639",
                    "name": "image_links",
                    "label": "Image Links",
                    "display": "block",
                    "sub_fields": [
                        {
                            "key": "field_5c0fe21a69ea9",
                            "label": "Links",
                            "name": "links",
                            "type": "repeater",
                            "instructions": "",
                            "required": 0,
                            "conditional_logic": 0,
                            "wrapper": {
                                "width": "",
                                "class": "",
                                "id": ""
                            },
                            "collapsed": "",
                            "min": 0,
                            "max": 0,
                            "layout": "block",
                            "button_label": "",
                            "sub_fields": [
                                {
                                    "key": "field_5c0fe1a73163a",
                                    "label": "Image",
                                    "name": "image",
                                    "type": "image",
                                    "instructions": "",
                                    "required": 0,
                                    "conditional_logic": 0,
                                    "wrapper": {
                                        "width": "50",
                                        "class": "",
                                        "id": ""
                                    },
                                    "return_format": "id",
                                    "preview_size": "thumbnail",
                                    "library": "all",
                                    "min_width": "",
                                    "min_height": "",
                                    "min_size": "",
                                    "max_width": "",
                                    "max_height": "",
                                    "max_size": "",
                                    "mime_types": ""
                                },
                                {
                                    "key": "field_5c0fe1bb3163b",
                                    "label": "Label",
                                    "name": "label",
                                    "type": "text",
                                    "instructions": "",
                                    "required": 0,
                                    "conditional_logic": 0,
                                    "wrapper": {
                                        "width": "50",
                                        "class": "",
                                        "id": ""
                                    },
                                    "default_value": "",
                                    "placeholder": "",
                                    "prepend": "",
                                    "append": "",
                                    "maxlength": ""
                                },
                                {
                                    "key": "field_5c0fe1c63163c",
                                    "label": "Link",
                                    "name": "link",
                                    "type": "clone",
                                    "instructions": "",
                                    "required": 0,
                                    "conditional_logic": 0,
                                    "wrapper": {
                                        "width": "",
                                        "class": "",
                                        "id": ""
                                    },
                                    "clone": [
                                        "group_59d2f8315cf01"
                                    ],
                                    "display": "seamless",
                                    "layout": "block",
                                    "prefix_label": 0,
                                    "prefix_name": 0
                                }
                            ]
                        }
                    ],
                    "min": "",
                    "max": ""
                },
                "layout_5bc8946a3510c": {
                    "key": "layout_5bc8946a3510c",
                    "name": "newsletter",
                    "label": "Newsletter",
                    "display": "block",
                    "sub_fields": [
                        {
                            "key": "field_5bc8947a3510d",
                            "label": "Signup Form",
                            "name": "signup_form",
                            "type": "wysiwyg",
                            "instructions": "",
                            "required": 0,
                            "conditional_logic": 0,
                            "wrapper": {
                                "width": "",
                                "class": "",
                                "id": ""
                            },
                            "default_value": "",
                            "tabs": "all",
                            "toolbar": "full",
                            "media_upload": 1,
                            "delay": 0
                        },
                        {
                            "key": "field_5bc894933510e",
                            "label": "Archive Title",
                            "name": "archive_title",
                            "type": "text",
                            "instructions": "",
                            "required": 0,
                            "conditional_logic": 0,
                            "wrapper": {
                                "width": "50",
                                "class": "",
                                "id": ""
                            },
                            "default_value": "",
                            "placeholder": "",
                            "prepend": "",
                            "append": "",
                            "maxlength": ""
                        },
                        {
                            "key": "field_5bc894b73510f",
                            "label": "Archive Link",
                            "name": "archive_link",
                            "type": "text",
                            "instructions": "",
                            "required": 0,
                            "conditional_logic": 0,
                            "wrapper": {
                                "width": "50",
                                "class": "",
                                "id": ""
                            },
                            "default_value": "",
                            "maxlength": "",
                            "placeholder": "",
                            "prepend": "",
                            "append": ""
                        }
                    ],
                    "min": "",
                    "max": ""
                },
                "layout_5d2f268a46112": {
                    "key": "layout_5d2f268a46112",
                    "name": "staff_grid",
                    "label": "Staff Grid",
                    "display": "block",
                    "sub_fields": [
                        {
                            "key": "field_5d2f297146116",
                            "label": "Title",
                            "name": "title",
                            "type": "clone",
                            "instructions": "",
                            "required": 0,
                            "conditional_logic": 0,
                            "wrapper": {
                                "width": "",
                                "class": "",
                                "id": ""
                            },
                            "clone": [
                                "group_59fbc9fa02cfe"
                            ],
                            "display": "seamless",
                            "layout": "block",
                            "prefix_label": 0,
                            "prefix_name": 0
                        },
                        {
                            "key": "field_5d2f26f946114",
                            "label": "Category",
                            "name": "category",
                            "type": "taxonomy",
                            "instructions": "",
                            "required": 0,
                            "conditional_logic": 0,
                            "wrapper": {
                                "width": "",
                                "class": "",
                                "id": ""
                            },
                            "taxonomy": "groups",
                            "field_type": "multi_select",
                            "allow_null": 0,
                            "add_term": 0,
                            "save_terms": 0,
                            "load_terms": 0,
                            "return_format": "id",
                            "multiple": 0
                        },
                        {
                            "key": "field_5d2f283846115",
                            "label": "Additional Staff",
                            "name": "additional_staff",
                            "type": "relationship",
                            "instructions": "",
                            "required": 0,
                            "conditional_logic": 0,
                            "wrapper": {
                                "width": "",
                                "class": "",
                                "id": ""
                            },
                            "post_type": [
                                "staff"
                            ],
                            "taxonomy": "",
                            "filters": [
                                "search",
                                "post_type",
                                "taxonomy"
                            ],
                            "elements": "",
                            "min": "",
                            "max": "",
                            "return_format": "object"
                        }
                    ],
                    "min": "",
                    "max": ""
                },
                "layout_5c07f9ef4bad5": {
                    "key": "layout_5c07f9ef4bad5",
                    "name": "staff_member",
                    "label": "Staff Member",
                    "display": "block",
                    "sub_fields": [
                        {
                            "key": "field_5c07fc014eab5",
                            "label": "Title",
                            "name": "title",
                            "type": "clone",
                            "instructions": "",
                            "required": 0,
                            "conditional_logic": 0,
                            "wrapper": {
                                "width": "",
                                "class": "",
                                "id": ""
                            },
                            "clone": [
                                "group_59fbc9fa02cfe"
                            ],
                            "display": "seamless",
                            "layout": "block",
                            "prefix_label": 0,
                            "prefix_name": 0
                        },
                        {
                            "key": "field_5c07f9fb4bad6",
                            "label": "Content",
                            "name": "content",
                            "type": "post_object",
                            "instructions": "",
                            "required": 0,
                            "conditional_logic": 0,
                            "wrapper": {
                                "width": "50",
                                "class": "",
                                "id": ""
                            },
                            "post_type": [
                                "staff"
                            ],
                            "taxonomy": "",
                            "allow_null": 0,
                            "multiple": 0,
                            "return_format": "object",
                            "ui": 1
                        },
                        {
                            "key": "field_5c07fc424eab6",
                            "label": "Button Text",
                            "name": "button_text",
                            "type": "text",
                            "instructions": "",
                            "required": 0,
                            "conditional_logic": 0,
                            "wrapper": {
                                "width": "50",
                                "class": "",
                                "id": ""
                            },
                            "default_value": "",
                            "placeholder": "",
                            "prepend": "",
                            "append": "",
                            "maxlength": ""
                        }
                    ],
                    "min": "",
                    "max": ""
                },
                "57b5bc372c722": {
                    "key": "57b5bc372c722",
                    "name": "title",
                    "label": "Title",
                    "display": "block",
                    "sub_fields": [
                        {
                            "key": "field_59fbd5138c5ed",
                            "label": "Title Block",
                            "name": "title_block",
                            "type": "clone",
                            "instructions": "",
                            "required": 0,
                            "conditional_logic": 0,
                            "wrapper": {
                                "width": "",
                                "class": "",
                                "id": ""
                            },
                            "clone": [
                                "group_59fbc9fa02cfe"
                            ],
                            "display": "seamless",
                            "layout": "block",
                            "prefix_label": 0,
                            "prefix_name": 0
                        }
                    ],
                    "min": "",
                    "max": ""
                },
                "582539a076e13": {
                    "key": "582539a076e13",
                    "name": "widget",
                    "label": "Widget",
                    "display": "block",
                    "sub_fields": [
                        {
                            "key": "field_582539ac76e15",
                            "label": "Widget",
                            "name": "widget",
                            "type": "select",
                            "instructions": "",
                            "required": 0,
                            "conditional_logic": 0,
                            "wrapper": {
                                "width": "",
                                "class": "",
                                "id": ""
                            },
                            "choices": [],
                            "default_value": [],
                            "allow_null": 0,
                            "multiple": 0,
                            "ui": 0,
                            "ajax": 0,
                            "return_format": "value",
                            "placeholder": ""
                        }
                    ],
                    "min": "",
                    "max": ""
                }
            },
            "button_label": "Add Row",
            "min": "",
            "max": ""
        },
        {
            "key": "field_57b5bc372cf5a",
            "label": "Sidebar",
            "name": "",
            "type": "tab",
            "instructions": "",
            "required": 0,
            "conditional_logic": 0,
            "wrapper": {
                "width": "",
                "class": "",
                "id": ""
            },
            "placement": "left",
            "endpoint": 0
        },
        {
            "key": "field_57b5bc412cf5b",
            "label": "Rows",
            "name": "side_rows",
            "type": "flexible_content",
            "instructions": "",
            "required": 0,
            "conditional_logic": 0,
            "wrapper": {
                "width": "",
                "class": "",
                "id": ""
            },
            "layouts": {
                "57b5bc4703af2": {
                    "key": "57b5bc4703af2",
                    "name": "editor",
                    "label": "Editor",
                    "display": "block",
                    "sub_fields": [
                        {
                            "key": "field_59fbd53a8c5ee",
                            "label": "Title Block",
                            "name": "title_block",
                            "type": "clone",
                            "instructions": "",
                            "required": 0,
                            "conditional_logic": 0,
                            "wrapper": {
                                "width": "",
                                "class": "",
                                "id": ""
                            },
                            "clone": [
                                "group_59fbc9fa02cfe"
                            ],
                            "display": "seamless",
                            "layout": "block",
                            "prefix_label": 0,
                            "prefix_name": 0
                        },
                        {
                            "key": "field_57b5d32390695",
                            "label": "Content",
                            "name": "content",
                            "type": "wysiwyg",
                            "instructions": "",
                            "required": 0,
                            "conditional_logic": 0,
                            "wrapper": {
                                "width": "",
                                "class": "",
                                "id": ""
                            },
                            "default_value": "",
                            "tabs": "all",
                            "toolbar": "full",
                            "media_upload": 1,
                            "delay": 0
                        }
                    ],
                    "min": "",
                    "max": ""
                },
                "57b5bd7b0dbdf": {
                    "key": "57b5bd7b0dbdf",
                    "name": "links",
                    "label": "Links",
                    "display": "block",
                    "sub_fields": [
                        {
                            "key": "field_57b5d36690696",
                            "label": "Links",
                            "name": "links",
                            "type": "repeater",
                            "instructions": "",
                            "required": 0,
                            "conditional_logic": 0,
                            "wrapper": {
                                "width": "",
                                "class": "",
                                "id": ""
                            },
                            "collapsed": "",
                            "min": 0,
                            "max": 0,
                            "layout": "block",
                            "button_label": "Add Link",
                            "sub_fields": [
                                {
                                    "key": "field_57b5d37390697",
                                    "label": "Label",
                                    "name": "label",
                                    "type": "text",
                                    "instructions": "",
                                    "required": 0,
                                    "conditional_logic": 0,
                                    "wrapper": {
                                        "width": "50",
                                        "class": "",
                                        "id": ""
                                    },
                                    "default_value": "",
                                    "placeholder": "",
                                    "prepend": "",
                                    "append": "",
                                    "maxlength": ""
                                },
                                {
                                    "key": "field_57b5d37890698",
                                    "label": "Type",
                                    "name": "type",
                                    "type": "select",
                                    "instructions": "",
                                    "required": 0,
                                    "conditional_logic": 0,
                                    "wrapper": {
                                        "width": "50",
                                        "class": "",
                                        "id": ""
                                    },
                                    "choices": {
                                        "link": "Link",
                                        "heading": "Heading"
                                    },
                                    "default_value": [],
                                    "allow_null": 0,
                                    "multiple": 0,
                                    "ui": 0,
                                    "ajax": 0,
                                    "return_format": "value",
                                    "placeholder": ""
                                },
                                {
                                    "key": "field_57b5d38990699",
                                    "label": "URL",
                                    "name": "url",
                                    "type": "clone",
                                    "instructions": "",
                                    "required": 0,
                                    "conditional_logic": [
                                        [
                                            {
                                                "field": "field_57b5d37890698",
                                                "operator": "==",
                                                "value": "link"
                                            }
                                        ]
                                    ],
                                    "wrapper": {
                                        "width": "",
                                        "class": "",
                                        "id": ""
                                    },
                                    "clone": [
                                        "group_59d2f8315cf01"
                                    ],
                                    "display": "seamless",
                                    "layout": "block",
                                    "prefix_label": 0,
                                    "prefix_name": 0
                                }
                            ]
                        }
                    ],
                    "min": "",
                    "max": ""
                },
                "582539c376e16": {
                    "key": "582539c376e16",
                    "name": "widget",
                    "label": "Widget",
                    "display": "block",
                    "sub_fields": [
                        {
                            "key": "field_582539cc76e17",
                            "label": "Widget",
                            "name": "widget",
                            "type": "select",
                            "instructions": "",
                            "required": 0,
                            "conditional_logic": 0,
                            "wrapper": {
                                "width": "",
                                "class": "",
                                "id": ""
                            },
                            "choices": {
                                "873": "Corporations Sidebar",
                                "768": "Services Menu",
                                "704": "About Us Menu"
                            },
                            "default_value": [],
                            "allow_null": 0,
                            "multiple": 0,
                            "ui": 0,
                            "ajax": 0,
                            "return_format": "value",
                            "placeholder": ""
                        }
                    ],
                    "min": "",
                    "max": ""
                },
                "layout_5bcde43ca7182": {
                    "key": "layout_5bcde43ca7182",
                    "name": "image_button",
                    "label": "Image Button",
                    "display": "block",
                    "sub_fields": [
                        {
                            "key": "field_5bcde44fa7183",
                            "label": "Image",
                            "name": "image",
                            "type": "image",
                            "instructions": "",
                            "required": 0,
                            "conditional_logic": 0,
                            "wrapper": {
                                "width": "",
                                "class": "",
                                "id": ""
                            },
                            "return_format": "id",
                            "preview_size": "thumbnail",
                            "library": "all",
                            "min_width": "",
                            "min_height": "",
                            "min_size": "",
                            "max_width": "",
                            "max_height": "",
                            "max_size": "",
                            "mime_types": ""
                        },
                        {
                            "key": "field_5bcde482a7184",
                            "label": "Button",
                            "name": "button",
                            "type": "clone",
                            "instructions": "",
                            "required": 0,
                            "conditional_logic": 0,
                            "wrapper": {
                                "width": "",
                                "class": "",
                                "id": ""
                            },
                            "clone": [
                                "group_58822f9c56d26"
                            ],
                            "display": "seamless",
                            "layout": "block",
                            "prefix_label": 0,
                            "prefix_name": 0
                        }
                    ],
                    "min": "",
                    "max": ""
                },
                "layout_5c06e0fe5fcbe": {
                    "key": "layout_5c06e0fe5fcbe",
                    "name": "image",
                    "label": "Image",
                    "display": "block",
                    "sub_fields": [
                        {
                            "key": "field_5c06e1045fcbf",
                            "label": "Image",
                            "name": "image",
                            "type": "image",
                            "instructions": "",
                            "required": 0,
                            "conditional_logic": 0,
                            "wrapper": {
                                "width": "",
                                "class": "",
                                "id": ""
                            },
                            "return_format": "id",
                            "preview_size": "thumbnail",
                            "library": "all",
                            "min_width": "",
                            "min_height": "",
                            "min_size": "",
                            "max_width": "",
                            "max_height": "",
                            "max_size": "",
                            "mime_types": ""
                        }
                    ],
                    "min": "",
                    "max": ""
                },
                "layout_5bce135a1d7b7": {
                    "key": "layout_5bce135a1d7b7",
                    "name": "twitter_feed",
                    "label": "Twitter Feed",
                    "display": "block",
                    "sub_fields": [
                        {
                            "key": "field_5c2e5d371ca18",
                            "label": "Twitter Name",
                            "name": "twitter_name",
                            "type": "text",
                            "instructions": "",
                            "required": 0,
                            "conditional_logic": 0,
                            "wrapper": {
                                "width": "50",
                                "class": "",
                                "id": ""
                            },
                            "default_value": "",
                            "placeholder": "",
                            "prepend": "",
                            "append": "",
                            "maxlength": ""
                        },
                        {
                            "key": "field_5c2e39bfc1212",
                            "label": "Number of Tweets",
                            "name": "number_of_tweets",
                            "type": "number",
                            "instructions": "",
                            "required": 0,
                            "conditional_logic": 0,
                            "wrapper": {
                                "width": "50",
                                "class": "",
                                "id": ""
                            },
                            "default_value": 1,
                            "placeholder": "",
                            "prepend": "",
                            "append": "",
                            "min": 1,
                            "max": "",
                            "step": 1
                        }
                    ],
                    "min": "",
                    "max": ""
                },
                "layout_5c08381f83e77": {
                    "key": "layout_5c08381f83e77",
                    "name": "staff_member",
                    "label": "Staff Member",
                    "display": "block",
                    "sub_fields": [
                        {
                            "key": "field_5c08383a83e78",
                            "label": "Staff Member",
                            "name": "staff_member",
                            "type": "post_object",
                            "instructions": "",
                            "required": 0,
                            "conditional_logic": 0,
                            "wrapper": {
                                "width": "",
                                "class": "",
                                "id": ""
                            },
                            "post_type": [
                                "staff"
                            ],
                            "taxonomy": "",
                            "allow_null": 0,
                            "multiple": 0,
                            "return_format": "object",
                            "ui": 1
                        },
                        {
                            "key": "field_5c08387483e79",
                            "label": "Button Text",
                            "name": "button_text",
                            "type": "text",
                            "instructions": "",
                            "required": 0,
                            "conditional_logic": 0,
                            "wrapper": {
                                "width": "",
                                "class": "",
                                "id": ""
                            },
                            "default_value": "",
                            "placeholder": "",
                            "prepend": "",
                            "append": "",
                            "maxlength": ""
                        }
                    ],
                    "min": "",
                    "max": ""
                },
                "layout_5c100b8e84672": {
                    "key": "layout_5c100b8e84672",
                    "name": "divider",
                    "label": "Divider",
                    "display": "block",
                    "sub_fields": [
                        {
                            "key": "field_5c100b9984673",
                            "label": "Message",
                            "name": "",
                            "type": "message",
                            "instructions": "",
                            "required": 0,
                            "conditional_logic": 0,
                            "wrapper": {
                                "width": "",
                                "class": "",
                                "id": ""
                            },
                            "message": "This a divider between sections of the sidebar. It adds a line and some spacing.",
                            "new_lines": "wpautop",
                            "esc_html": 0
                        }
                    ],
                    "min": "",
                    "max": ""
                }
            },
            "button_label": "Add Row",
            "min": "",
            "max": ""
        },
        {
            "key": "field_57b5d63c0d9d7",
            "label": "Options",
            "name": "options",
            "type": "clone",
            "instructions": "",
            "required": 0,
            "conditional_logic": 0,
            "wrapper": {
                "width": "",
                "class": "",
                "id": ""
            },
            "clone": [
                "group_58a7c38da05f6"
            ],
            "display": "seamless",
            "layout": "block",
            "prefix_label": 0,
            "prefix_name": 0
        },
        {
            "key": "field_57b5d64c0d9d8",
            "label": "Sidebar Placement",
            "name": "class_sidebar_placement",
            "type": "select",
            "instructions": "",
            "required": 0,
            "conditional_logic": 0,
            "wrapper": {
                "width": "50",
                "class": "",
                "id": ""
            },
            "choices": {
                "side-left": "Left",
                "side-right": "Right",
                "side-hidden": "Hidden"
            },
            "default_value": [],
            "allow_null": 0,
            "multiple": 0,
            "ui": 0,
            "return_format": "value",
            "ajax": 0,
            "placeholder": ""
        },
        {
            "key": "field_57b5bc472cf5c",
            "label": "Background",
            "name": "background",
            "type": "clone",
            "instructions": "",
            "required": 0,
            "conditional_logic": 0,
            "wrapper": {
                "width": "",
                "class": "",
                "id": ""
            },
            "clone": [
                "group_57b4b470e9d29"
            ],
            "display": "seamless",
            "layout": "block",
            "prefix_label": 0,
            "prefix_name": 0
        },
        {
            "key": "field_5bcde9a4f72de",
            "label": "Sidebar Width",
            "name": "class_sidebar_width",
            "type": "select",
            "instructions": "",
            "required": 0,
            "conditional_logic": 0,
            "wrapper": {
                "width": "50",
                "class": "",
                "id": ""
            },
            "choices": {
                "null": "Default",
                "sidebar-wide": "Wide"
            },
            "default_value": [],
            "allow_null": 0,
            "multiple": 0,
            "ui": 0,
            "return_format": "value",
            "ajax": 0,
            "placeholder": ""
        },
        {
            "key": "field_5c06e7fa19a5c",
            "label": "Sidebar Background",
            "name": "class_sidebar_background",
            "type": "select",
            "instructions": "",
            "required": 0,
            "conditional_logic": 0,
            "wrapper": {
                "width": "",
                "class": "",
                "id": ""
            },
            "choices": {
                "null": "Transparent",
                "sidebar-dark": "Dark"
            },
            "default_value": [],
            "allow_null": 0,
            "multiple": 0,
            "ui": 0,
            "return_format": "value",
            "ajax": 0,
            "placeholder": ""
        }
    ],
    "location": [
        [
            {
                "param": "post_type",
                "operator": "==",
                "value": "post"
            }
        ]
    ],
    "menu_order": 0,
    "position": "normal",
    "style": "default",
    "label_placement": "top",
    "instruction_placement": "label",
    "hide_on_screen": "",
    "active": 0,
    "description": "",
    "modified": 1569349412
}