{
    "key": "group_572229fc5045c",
    "title": "Content",
    "fields": [
        {
            "key": "field_57222a09e15e1",
            "label": "Blocks",
            "name": "blocks",
            "type": "flexible_content",
            "instructions": "",
            "required": 0,
            "conditional_logic": 0,
            "wrapper": {
                "width": "",
                "class": "",
                "id": ""
            },
            "layouts": {
                "57a49c97b77de": {
                    "key": "57a49c97b77de",
                    "name": "accent_image",
                    "label": "Accent Image",
                    "display": "block",
                    "sub_fields": [
                        {
                            "key": "field_59eea71bac7ed",
                            "label": "Content",
                            "name": "content",
                            "type": "clone",
                            "instructions": "",
                            "required": 0,
                            "conditional_logic": 0,
                            "wrapper": {
                                "width": "",
                                "class": "",
                                "id": ""
                            },
                            "clone": [
                                "group_59eea5a55cb4d"
                            ],
                            "display": "seamless",
                            "layout": "block",
                            "prefix_label": 0,
                            "prefix_name": 0
                        }
                    ],
                    "min": "",
                    "max": ""
                },
                "layout_5c2d0d8cdce61": {
                    "key": "layout_5c2d0d8cdce61",
                    "name": "accordion",
                    "label": "Accordion",
                    "display": "block",
                    "sub_fields": [
                        {
                            "key": "field_5c2d0d93dce62",
                            "label": "Content",
                            "name": "content",
                            "type": "clone",
                            "instructions": "",
                            "required": 0,
                            "conditional_logic": 0,
                            "wrapper": {
                                "width": "",
                                "class": "",
                                "id": ""
                            },
                            "clone": [
                                "group_5c2d0cefc2e0c"
                            ],
                            "display": "seamless",
                            "layout": "block",
                            "prefix_label": 0,
                            "prefix_name": 0
                        }
                    ],
                    "min": "",
                    "max": ""
                },
                "layout_5c111ac1fae23": {
                    "key": "layout_5c111ac1fae23",
                    "name": "articles",
                    "label": "Articles",
                    "display": "block",
                    "sub_fields": [
                        {
                            "key": "field_5c111ac7fae24",
                            "label": "Content",
                            "name": "content",
                            "type": "clone",
                            "instructions": "",
                            "required": 0,
                            "conditional_logic": 0,
                            "wrapper": {
                                "width": "",
                                "class": "",
                                "id": ""
                            },
                            "clone": [
                                "group_5c1030fea1ddb"
                            ],
                            "display": "seamless",
                            "layout": "block",
                            "prefix_label": 0,
                            "prefix_name": 0
                        }
                    ],
                    "min": "",
                    "max": ""
                },
                "layout_5bfc5034bd4c4": {
                    "key": "layout_5bfc5034bd4c4",
                    "name": "cards",
                    "label": "Cards",
                    "display": "block",
                    "sub_fields": [
                        {
                            "key": "field_5bfc5039bd4c5",
                            "label": "Content",
                            "name": "content",
                            "type": "clone",
                            "instructions": "",
                            "required": 0,
                            "conditional_logic": 0,
                            "wrapper": {
                                "width": "",
                                "class": "",
                                "id": ""
                            },
                            "clone": [
                                "group_5bfc4c8ee4510"
                            ],
                            "display": "seamless",
                            "layout": "block",
                            "prefix_label": 0,
                            "prefix_name": 0
                        }
                    ],
                    "min": "",
                    "max": ""
                },
                "57a3a7e3d157d": {
                    "key": "57a3a7e3d157d",
                    "name": "column_block",
                    "label": "Columns",
                    "display": "block",
                    "sub_fields": [
                        {
                            "key": "field_59eeaaf511588",
                            "label": "Content",
                            "name": "content",
                            "type": "clone",
                            "instructions": "",
                            "required": 0,
                            "conditional_logic": 0,
                            "wrapper": {
                                "width": "",
                                "class": "",
                                "id": ""
                            },
                            "clone": [
                                "group_59eeaa2c73a30"
                            ],
                            "display": "seamless",
                            "layout": "block",
                            "prefix_label": 0,
                            "prefix_name": 0
                        }
                    ],
                    "min": "",
                    "max": ""
                },
                "5a1b1064a4ca6": {
                    "key": "5a1b1064a4ca6",
                    "name": "combo",
                    "label": "Combo",
                    "display": "block",
                    "sub_fields": [
                        {
                            "key": "field_5a1b106ba4ca7",
                            "label": "Content",
                            "name": "content",
                            "type": "clone",
                            "instructions": "",
                            "required": 0,
                            "conditional_logic": 0,
                            "wrapper": {
                                "width": "",
                                "class": "",
                                "id": ""
                            },
                            "clone": [
                                "group_5a1b0f51a6793"
                            ],
                            "display": "seamless",
                            "layout": "block",
                            "prefix_label": 0,
                            "prefix_name": 0
                        }
                    ],
                    "min": "",
                    "max": ""
                },
                "57b4c8a8cff57": {
                    "key": "57b4c8a8cff57",
                    "name": "content_grid",
                    "label": "Content Grid",
                    "display": "block",
                    "sub_fields": [
                        {
                            "key": "field_59eeac8c59033",
                            "label": "Content",
                            "name": "content",
                            "type": "clone",
                            "instructions": "",
                            "required": 0,
                            "conditional_logic": 0,
                            "wrapper": {
                                "width": "",
                                "class": "",
                                "id": ""
                            },
                            "clone": [
                                "group_59eeac13de792"
                            ],
                            "display": "seamless",
                            "layout": "block",
                            "prefix_label": 0,
                            "prefix_name": 0
                        }
                    ],
                    "min": "",
                    "max": ""
                },
                "57b5bc1a2cf57": {
                    "key": "57b5bc1a2cf57",
                    "name": "content_with_sidebar",
                    "label": "Content with Sidebar",
                    "display": "block",
                    "sub_fields": [
                        {
                            "key": "field_59eeae1dfc1a6",
                            "label": "Content",
                            "name": "content",
                            "type": "clone",
                            "instructions": "",
                            "required": 0,
                            "conditional_logic": 0,
                            "wrapper": {
                                "width": "",
                                "class": "",
                                "id": ""
                            },
                            "clone": [
                                "group_59eeada158b78"
                            ],
                            "display": "seamless",
                            "layout": "block",
                            "prefix_label": 0,
                            "prefix_name": 0
                        }
                    ],
                    "min": "",
                    "max": ""
                },
                "layout_5bc4fb7ddb2df": {
                    "key": "layout_5bc4fb7ddb2df",
                    "name": "events",
                    "label": "Events",
                    "display": "block",
                    "sub_fields": [
                        {
                            "key": "field_5bc4fb83db2e0",
                            "label": "Content",
                            "name": "events_content",
                            "type": "clone",
                            "instructions": "",
                            "required": 0,
                            "conditional_logic": 0,
                            "wrapper": {
                                "width": "",
                                "class": "",
                                "id": ""
                            },
                            "clone": [
                                "group_5bc4f6b5ad062"
                            ],
                            "display": "seamless",
                            "layout": "block",
                            "prefix_label": 0,
                            "prefix_name": 0
                        }
                    ],
                    "min": "",
                    "max": ""
                },
                "57a39890b0ce9": {
                    "key": "57a39890b0ce9",
                    "name": "hero_block",
                    "label": "Hero",
                    "display": "block",
                    "sub_fields": [
                        {
                            "key": "field_59eeaf2a8913c",
                            "label": "Content",
                            "name": "content",
                            "type": "clone",
                            "instructions": "",
                            "required": 0,
                            "conditional_logic": 0,
                            "wrapper": {
                                "width": "",
                                "class": "",
                                "id": ""
                            },
                            "clone": [
                                "group_59eeae97a2791"
                            ],
                            "display": "seamless",
                            "layout": "block",
                            "prefix_label": 0,
                            "prefix_name": 0
                        }
                    ],
                    "min": "",
                    "max": ""
                },
                "layout_5bfc0fdc20ff3": {
                    "key": "layout_5bfc0fdc20ff3",
                    "name": "link_grid",
                    "label": "Link Grid",
                    "display": "block",
                    "sub_fields": [
                        {
                            "key": "field_5bfc0fe220ff4",
                            "label": "Content",
                            "name": "content",
                            "type": "clone",
                            "instructions": "",
                            "required": 0,
                            "conditional_logic": 0,
                            "wrapper": {
                                "width": "",
                                "class": "",
                                "id": ""
                            },
                            "clone": [
                                "group_5bfc0e9336079"
                            ],
                            "display": "seamless",
                            "layout": "block",
                            "prefix_label": 0,
                            "prefix_name": 0
                        }
                    ],
                    "min": "",
                    "max": ""
                },
                "57b4c0c1febbb": {
                    "key": "57b4c0c1febbb",
                    "name": "map",
                    "label": "Map",
                    "display": "block",
                    "sub_fields": [
                        {
                            "key": "field_59eeb015b32e7",
                            "label": "Content",
                            "name": "content",
                            "type": "clone",
                            "instructions": "",
                            "required": 0,
                            "conditional_logic": 0,
                            "wrapper": {
                                "width": "",
                                "class": "",
                                "id": ""
                            },
                            "clone": [
                                "group_59eeaf906bad0"
                            ],
                            "display": "seamless",
                            "layout": "block",
                            "prefix_label": 0,
                            "prefix_name": 0
                        }
                    ],
                    "min": "",
                    "max": ""
                },
                "layout_5e960af4d37cb": {
                    "key": "layout_5e960af4d37cb",
                    "name": "single_column_flexible",
                    "label": "Single Column - Flexible",
                    "display": "block",
                    "sub_fields": [
                        {
                            "key": "field_5e960b00d37cc",
                            "label": "Content",
                            "name": "content",
                            "type": "clone",
                            "instructions": "",
                            "required": 0,
                            "conditional_logic": 0,
                            "wrapper": {
                                "width": "",
                                "class": "",
                                "id": ""
                            },
                            "clone": [
                                "group_5e9606ebe768e"
                            ],
                            "display": "seamless",
                            "layout": "block",
                            "prefix_label": 0,
                            "prefix_name": 0
                        }
                    ],
                    "min": "",
                    "max": ""
                },
                "58252fc04a4a8": {
                    "key": "58252fc04a4a8",
                    "name": "widget",
                    "label": "Widget",
                    "display": "block",
                    "sub_fields": [
                        {
                            "key": "field_582531244a4aa",
                            "label": "Widget",
                            "name": "widget",
                            "type": "select",
                            "instructions": "",
                            "required": 0,
                            "conditional_logic": 0,
                            "wrapper": {
                                "width": "",
                                "class": "",
                                "id": ""
                            },
                            "choices": [],
                            "default_value": [],
                            "allow_null": 1,
                            "multiple": 0,
                            "ui": 0,
                            "ajax": 0,
                            "return_format": "value",
                            "placeholder": ""
                        }
                    ],
                    "min": "",
                    "max": ""
                },
                "57222a11d9e3a": {
                    "key": "57222a11d9e3a",
                    "name": "page_content",
                    "label": "Page Content (Layouts Only)",
                    "display": "block",
                    "sub_fields": [
                        {
                            "key": "field_57222a45e15e2",
                            "label": "Usage",
                            "name": "",
                            "type": "message",
                            "instructions": "",
                            "required": 0,
                            "conditional_logic": 0,
                            "wrapper": {
                                "width": "",
                                "class": "",
                                "id": ""
                            },
                            "message": "This will render whichever blocks you have selected for a particular page. This block is only used on a Layout.",
                            "new_lines": "wpautop",
                            "esc_html": 0
                        }
                    ],
                    "min": "",
                    "max": ""
                }
            },
            "button_label": "Add Block",
            "min": "",
            "max": ""
        }
    ],
    "location": [
        [
            {
                "param": "post_type",
                "operator": "==",
                "value": "page"
            }
        ],
        [
            {
                "param": "post_type",
                "operator": "==",
                "value": "post"
            }
        ],
        [
            {
                "param": "post_type",
                "operator": "==",
                "value": "layout"
            }
        ]
    ],
    "menu_order": 10,
    "position": "normal",
    "style": "default",
    "label_placement": "top",
    "instruction_placement": "label",
    "hide_on_screen": [
        "the_content"
    ],
    "active": 1,
    "description": "",
    "modified": 1586891545
}